<svg width="12" height="16" viewBox="0 0 12 16" fill="none" xmlns="http://www.w3.org/2000/svg">
<path d="M10.2535 10.7222L7.86525 9.52825C7.64 9.4155 7.5 9.189 7.5 8.937V8.09175C7.55725 8.02175 7.6175 7.942 7.67975 7.854C7.9895 7.4165 8.23775 6.9295 8.41825 6.40425C8.771 6.2425 9 5.89375 9 5.5V4.5C9 4.25925 8.91 4.026 8.75 3.84375V2.514C8.764 2.3765 8.819 1.558 8.227 0.88275C7.7135 0.297 6.88025 0 5.75 0C4.61975 0 3.7865 0.297 3.273 0.8825C2.681 1.55775 2.736 2.3765 2.75 2.514V3.84375C2.59 4.026 2.5 4.25925 2.5 4.5V5.5C2.5 5.80425 2.63825 6.088 2.87425 6.27725C3.10325 7.184 3.5825 7.86725 3.75 8.0865V8.91375C3.75 9.15575 3.618 9.37775 3.40575 9.49375L1.1755 10.7102C0.45025 11.106 0 11.8645 0 12.6905V13.5C0 14.6865 3.76125 15 5.75 15C7.73875 15 11.5 14.6865 11.5 13.5V12.7393C11.5 11.8798 11.0223 11.1067 10.2535 10.7222ZM11 13.5C11 13.8392 9.147 14.5 5.75 14.5C2.353 14.5 0.5 13.8392 0.5 13.5V12.6905C0.5 12.0478 0.8505 11.457 1.41475 11.1495L3.645 9.933C4.01825 9.72925 4.25 9.3385 4.25 8.91375V7.909L4.19175 7.8395C4.18575 7.83225 3.573 7.091 3.33925 6.07325L3.3165 5.97425L3.23125 5.91925C3.0865 5.82575 3 5.669 3 5.5V4.5C3 4.35975 3.0595 4.229 3.1675 4.13125L3.25 4.057V2.5L3.24775 2.46725C3.247 2.4605 3.162 1.7675 3.649 1.212C4.06325 0.7395 4.77025 0.5 5.75 0.5C6.72625 0.5 7.43175 0.73775 7.8465 1.207C8.33325 1.75725 8.25275 2.46125 8.25225 2.46725L8.25 4.057L8.3325 4.1315C8.4405 4.229 8.5 4.35975 8.5 4.5V5.5C8.5 5.71825 8.357 5.90925 8.1445 5.97475L8.02 6.013L7.98 6.13675C7.81275 6.657 7.5745 7.1375 7.2715 7.565C7.19725 7.67025 7.125 7.7635 7.06225 7.83475L7 7.90575V8.937C7 9.3795 7.24575 9.77725 7.6415 9.97525L10.0298 11.1692C10.6283 11.4685 11 12.07 11 12.7393V13.5Z" transform="translate(0.0562744 0.663086)" fill="white"/>
</svg>
