<svg width="19" height="19" viewBox="0 0 19 19" fill="none" xmlns="http://www.w3.org/2000/svg">
<rect width="18.298" height="18.2922" fill="black" fill-opacity="0" transform="translate(0 0.0319824)"/>
<path d="M18.0319 1.16675L17.163 0.297534C16.8081 -0.056433 16.2309 -0.0567379 15.8761 0.297838L14.923 1.2509H0V18.3242H17.0733V3.4125L17.1663 3.31951L18.0319 2.45396C18.3867 2.09907 18.3867 1.52163 18.0319 1.16675ZM6.11194 11.2364L7.09366 12.2181L5.74365 12.5864L6.11194 11.2364ZM15.8727 3.75061L14.5794 2.45731L15.0105 2.02621L16.3041 3.31951L15.8727 3.75061ZM15.4416 4.18171L7.68056 11.9428L6.38725 10.6495L14.1483 2.88841L15.4416 4.18171ZM16.4636 4.02226V17.7145H0.609761V1.86066H14.3132L5.7406 10.4339L5.68328 10.4912L5.03663 12.8629L4.66285 13.2367C4.54364 13.3559 4.54364 13.5486 4.66285 13.6678C4.7223 13.7272 4.80035 13.7571 4.8784 13.7571C4.95645 13.7571 5.0345 13.7272 5.09395 13.6678L5.46773 13.294L7.8394 12.6467L15.8733 4.61312L16.0096 4.47684L16.4636 4.02226ZM17.6008 2.02285L16.7352 2.88841L15.4416 1.5948L16.3072 0.729245C16.4242 0.612171 16.6148 0.612475 16.7319 0.729245L17.6008 1.59815C17.7178 1.71492 17.7178 1.90578 17.6008 2.02285Z" fill="#007AFF"/>
</svg>
