<svg width="24" height="24" viewBox="0 0 24 24" fill="none" xmlns="http://www.w3.org/2000/svg">
<path fill-rule="evenodd" clip-rule="evenodd" d="M11.6508 1.38958e-09C5.22219 1.38958e-09 0 5.22802 0 11.6508C0 18.0737 5.22219 23.3017 11.6508 23.3017C18.0737 23.3017 23.3017 18.0737 23.3017 11.6508C23.3017 5.22802 18.0737 1.38958e-09 11.6508 1.38958e-09ZM11.6508 22.7422C5.53109 22.7422 0.553692 17.7648 0.553692 11.6508C0.553692 5.53109 5.53109 0.553692 11.6508 0.553692C17.7706 0.553692 22.7422 5.53109 22.7422 11.645C22.7422 17.7648 17.7648 22.7422 11.6508 22.7422ZM20.3525 14.6524C18.6332 16.8963 16.3776 17.7764 14.4718 18.0795C16.943 16.9896 18.6798 14.5184 18.6798 11.6508C18.6798 7.78083 15.5267 4.6277 11.6567 4.6277C7.78665 4.6277 4.63353 7.78083 4.63353 11.6508C4.63353 15.142 7.19799 18.0387 10.5435 18.5749V18.5866C10.5668 18.5924 11.4061 18.7789 12.6533 18.7789C14.8623 18.7789 18.3476 18.1961 20.8013 14.9905L20.3525 14.6524ZM11.6508 5.18722C14.5067 5.18722 16.9313 7.05228 17.7822 9.62258L14.1046 10.73C13.6441 9.49436 12.3211 8.76582 11.0039 9.0922C10.6775 9.1738 10.3803 9.31951 10.118 9.50601L7.40199 6.79001C8.53851 5.79336 10.0247 5.18722 11.6508 5.18722ZM13.4343 12.7174C13.1487 13.1953 12.6941 13.5276 12.1579 13.6674C11.6217 13.8015 11.0622 13.7199 10.5843 13.4343C10.1063 13.1487 9.77412 12.6941 9.63424 12.1579C9.50019 11.6217 9.58178 11.0622 9.86737 10.5843C10.153 10.1063 10.6076 9.77412 11.1438 9.64007C11.3128 9.59927 11.4818 9.57595 11.6508 9.57595C12.5775 9.57595 13.4285 10.2054 13.6616 11.1438C13.7957 11.68 13.7141 12.2395 13.4343 12.7174ZM5.18722 11.6508C5.18722 9.914 5.88079 8.34035 6.99983 7.17468L9.70418 9.87903C9.58761 10.0073 9.4827 10.1471 9.39528 10.2987C9.03392 10.9048 8.92901 11.61 9.10386 12.292C9.27288 12.9739 9.70418 13.5509 10.3045 13.9122C10.4327 13.988 10.5726 14.0521 10.7125 14.1046L9.50601 17.7415C6.994 16.8497 5.18722 14.4601 5.18722 11.6508ZM11.6508 18.1145C11.0913 18.1145 10.5551 18.0387 10.0364 17.9046L11.2429 14.2561C11.3769 14.2794 11.511 14.2911 11.645 14.2911C11.8607 14.2911 12.0763 14.2619 12.292 14.2095C12.9739 14.0346 13.5509 13.6092 13.9122 13.0088C14.227 12.4843 14.3319 11.8781 14.2444 11.2778L17.9338 10.1646C18.0445 10.6425 18.1145 11.1379 18.1145 11.6508C18.1145 15.212 15.212 18.1145 11.6508 18.1145Z" transform="translate(0.00842285 0.506592)" fill="#2A2D33"/>
</svg>
