<svg width="25" height="30" viewBox="0 0 25 30" fill="none" xmlns="http://www.w3.org/2000/svg">
<path d="M9.6168 -7.5663e-08H0.48082C0.215251 -7.5663e-08 -1.20373e-07 0.215251 -1.20373e-07 0.48082C-1.20373e-07 0.74639 0.215251 0.96164 0.48082 0.96164H9.61674C9.88231 0.96164 10.0976 0.74639 10.0976 0.48082C10.0976 0.215251 9.88231 -7.5663e-08 9.6168 -7.5663e-08Z" transform="translate(2.88501 13.7702)" fill="#007AFF"/>
<path d="M9.6168 3.43923e-07H0.48082C0.215251 3.43923e-07 -1.20373e-07 0.21525 -1.20373e-07 0.48082C-1.20373e-07 0.746389 0.215251 0.961639 0.48082 0.961639H9.61674C9.88231 0.961639 10.0976 0.746389 10.0976 0.48082C10.0976 0.21525 9.88231 3.43923e-07 9.6168 3.43923e-07Z" transform="translate(2.88501 16.1744)" fill="#007AFF"/>
<path d="M9.6168 -9.62984e-08H0.48082C0.215251 -9.62984e-08 -1.20373e-07 0.215306 -1.20373e-07 0.480819C-1.20373e-07 0.746389 0.215251 0.96164 0.48082 0.96164H9.61674C9.88231 0.96164 10.0976 0.746332 10.0976 0.480819C10.0976 0.21525 9.88231 -9.62984e-08 9.6168 -9.62984e-08Z" transform="translate(2.88501 18.5787)" fill="#007AFF"/>
<path d="M6.73176 7.84144e-07H0.48082C0.215251 7.84144e-07 -1.20373e-07 0.215251 -1.20373e-07 0.48082C-1.20373e-07 0.74639 0.215251 0.96164 0.48082 0.96164H6.73171C6.99727 0.96164 7.21253 0.74639 7.21253 0.48082C7.21253 0.215251 6.99728 7.84144e-07 6.73176 7.84144e-07Z" transform="translate(2.88501 20.9828)" fill="#007AFF"/>
<path d="M6.73176 3.43923e-07H0.48082C0.215251 3.43923e-07 -1.20373e-07 0.21525 -1.20373e-07 0.48082C-1.20373e-07 0.746389 0.215251 0.961639 0.48082 0.961639H6.73171C6.99727 0.961639 7.21253 0.746389 7.21253 0.48082C7.21253 0.21525 6.99728 3.43923e-07 6.73176 3.43923e-07Z" transform="translate(2.88501 23.387)" fill="#007AFF"/>
<path d="M23.8689 4.91964L18.0988 0.111274C17.9204 -0.0370913 17.6616 -0.0370913 17.4832 0.111274L13.0007 3.84671H1.44252C0.646202 3.84756 0.000845276 4.49292 5.15884e-08 5.28923V27.4078C0.000845276 28.2041 0.646202 28.8495 1.44252 28.8503H12.021C12.1485 28.8498 12.2707 28.799 12.3612 28.7091L19.0923 21.9781L19.0939 21.976C19.1322 21.9363 19.1633 21.8902 19.1857 21.8398C19.1919 21.8249 19.1973 21.8098 19.2019 21.7943C19.2162 21.7534 19.2249 21.7106 19.2276 21.6674C19.2282 21.657 19.2335 21.6482 19.2335 21.6377V16.8293H20.1952C20.9915 16.8285 21.6369 16.1831 21.6377 15.3868V5.77005H23.5611C23.7636 5.77011 23.9445 5.64327 24.0134 5.45287C24.0823 5.26241 24.0245 5.04924 23.8689 4.91964ZM12.5018 27.2087V22.5994C12.5021 22.334 12.7172 22.1188 12.9826 22.1186H17.5919L12.5018 27.2087ZM18.2719 21.1569H12.9826C12.1863 21.1578 11.541 21.8031 11.5401 22.5994V27.8887H1.44252C1.17706 27.8884 0.961922 27.6733 0.961696 27.4079V5.28923C0.961978 5.02377 1.17706 4.80864 1.44252 4.80841H11.8467L11.7132 4.9197C11.5575 5.04924 11.4997 5.26247 11.5687 5.45292C11.6376 5.64332 11.8185 5.77016 12.021 5.77011H13.9443V15.3869C13.9452 16.1832 14.5905 16.8286 15.3869 16.8294H18.2719V21.1569ZM21.1569 4.80836C21.0294 4.8083 20.9071 4.85896 20.8169 4.94917C20.7267 5.03933 20.676 5.16166 20.676 5.28923V15.3868C20.6758 15.6523 20.4606 15.8674 20.1952 15.8677H15.3869C15.1214 15.8674 14.9063 15.6522 14.906 15.3868V5.28923C14.9061 5.16172 14.8554 5.03938 14.7652 4.94917C14.6751 4.85901 14.5527 4.80836 14.4252 4.80836H13.3491L17.791 1.10672L22.2329 4.80836H21.1569Z" transform="translate(0 0.306763)" fill="#007AFF"/>
</svg>
