<svg width="34" height="28" viewBox="0 0 34 28" fill="none" xmlns="http://www.w3.org/2000/svg">
<path d="M24.4332 16.174H3.29997C2.30832 16.174 1.48695 15.4297 1.38878 14.4431L0.00247179 0.550918C-0.0115516 0.409683 0.0345253 0.26945 0.129684 0.165276C0.224843 0.0601006 0.359066 4.6617e-07 0.501304 4.6617e-07H27.2339C27.3751 4.6617e-07 27.5103 0.0601006 27.6055 0.165276C27.7007 0.26945 27.7467 0.410684 27.7327 0.550918L26.3474 14.4431C26.2472 15.4297 25.4249 16.174 24.4332 16.174ZM1.05322 1.00267L2.38444 14.3439C2.43152 14.8167 2.82418 15.1723 3.29897 15.1723H24.4332C24.908 15.1723 25.3017 14.8167 25.3487 14.3439L26.68 1.00267H1.05322Z" transform="translate(2.66089 11.4948)" fill="#2A2D33"/>
<path d="M0.501857 6.2502C0.358618 6.2502 0.216381 6.1891 0.118217 6.0709C-0.0610816 5.85955 -0.033035 5.54302 0.179319 5.36573L6.43575 0.116976C6.6491 -0.0603201 6.96463 -0.033275 7.14093 0.179079C7.31922 0.390431 7.29118 0.706959 7.07882 0.884255L0.822391 6.13301C0.729236 6.21114 0.615045 6.2502 0.501857 6.2502Z" transform="translate(7.11475 0.355499)" fill="#2A2D33"/>
<path d="M6.75772 6.25087C6.64453 6.25087 6.53034 6.21181 6.43618 6.13368L0.178751 0.884928C-0.032601 0.706631 -0.060648 0.391105 0.116648 0.178751C0.295946 -0.0326016 0.610471 -0.0606481 0.822825 0.116647L7.08026 5.3654C7.29161 5.5437 7.31966 5.85922 7.14236 6.07158C7.0432 6.18977 6.90096 6.25087 6.75772 6.25087Z" transform="translate(18.6816 0.354828)" fill="#2A2D33"/>
<path d="M31.3272 6.6591H1.72788C0.775293 6.6591 0 5.88381 0 4.93122V1.72788C0 0.775292 0.775293 1.52843e-07 1.72788 1.52843e-07H31.3272C32.2798 1.52843e-07 33.0551 0.775292 33.0551 1.72788V4.93122C33.0551 5.88381 32.2808 6.6591 31.3272 6.6591ZM1.72788 1.00067C1.32721 1.00067 1.00167 1.32621 1.00167 1.72688V4.93022C1.00167 5.33089 1.32721 5.65643 1.72788 5.65643H31.3272C31.7269 5.65643 32.0534 5.33089 32.0534 4.93022V1.72688C32.0534 1.32621 31.7279 1.00067 31.3272 1.00067H1.72788Z" transform="translate(0 5.83841)" fill="#2A2D33"/>
<path d="M0.500835 8.26378C0.224374 8.26378 1.14632e-07 8.0394 1.14632e-07 7.76294V0.500835C1.14632e-07 0.224374 0.224374 3.36254e-07 0.500835 3.36254e-07C0.777296 3.36254e-07 1.00167 0.224374 1.00167 0.500835V7.76294C1.00167 8.04041 0.778298 8.26378 0.500835 8.26378Z" transform="translate(8.76953 15.3122)" fill="#2A2D33"/>
<path d="M0.500835 8.26378C0.224374 8.26378 3.82107e-08 8.0394 3.82107e-08 7.76294V0.500835C3.82107e-08 0.224374 0.224374 3.36254e-07 0.500835 3.36254e-07C0.777296 3.36254e-07 1.00167 0.224374 1.00167 0.500835V7.76294C1.00167 8.04041 0.778298 8.26378 0.500835 8.26378Z" transform="translate(13.6077 15.3122)" fill="#2A2D33"/>
<path d="M0.500836 8.26378C0.224375 8.26378 9.17056e-07 8.0394 9.17056e-07 7.76294V0.500835C9.17056e-07 0.224374 0.224375 3.36254e-07 0.500836 3.36254e-07C0.777297 3.36254e-07 1.00167 0.224374 1.00167 0.500835V7.76294C1.00167 8.04041 0.777297 8.26378 0.500836 8.26378Z" transform="translate(18.4458 15.3122)" fill="#2A2D33"/>
<path d="M0.500836 8.26378C0.224375 8.26378 8.40635e-07 8.0394 8.40635e-07 7.76294V0.500835C8.40635e-07 0.224374 0.224375 3.36254e-07 0.500836 3.36254e-07C0.777297 3.36254e-07 1.00167 0.224374 1.00167 0.500835V7.76294C1.00167 8.04041 0.777297 8.26378 0.500836 8.26378Z" transform="translate(23.2837 15.3122)" fill="#2A2D33"/>
</svg>
